%!PS-Adobe-3.0 
%%Creator: MATLAB, The Mathworks, Inc.
%%Title: ensembles.ps
%%CreationDate: 04/19/2006  15:38:36
%%DocumentNeededFonts: Helvetica
%%DocumentProcessColors: Cyan Magenta Yellow Black
%%LanguageLevel: 2
%%Pages: (atend)
%%BoundingBox: (atend)
%%EndComments

%%BeginProlog
% MathWorks dictionary
/MathWorks 160 dict begin
% definition operators
/bdef {bind def} bind def
/ldef {load def} bind def
/xdef {exch def} bdef
/xstore {exch store} bdef
% operator abbreviations
/c  /clip ldef
/cc /concat ldef
/cp /closepath ldef
/gr /grestore ldef
/gs /gsave ldef
/mt /moveto ldef
/np /newpath ldef
/cm /currentmatrix ldef
/sm /setmatrix ldef
/rm /rmoveto ldef
/rl /rlineto ldef
/s {show newpath} bdef
/sc {setcmykcolor} bdef
/sr /setrgbcolor ldef
/sg /setgray ldef
/w /setlinewidth ldef
/j /setlinejoin ldef
/cap /setlinecap ldef
/rc {rectclip} bdef
/rf {rectfill} bdef
% page state control
/pgsv () def
/bpage {/pgsv save def} bdef
/epage {pgsv restore} bdef
/bplot /gsave ldef
/eplot {stroke grestore} bdef
% orientation switch
/portraitMode 0 def /landscapeMode 1 def /rotateMode 2 def
% coordinate system mappings
/dpi2point 0 def
% font control
/FontSize 0 def
/FMS {/FontSize xstore findfont [FontSize 0 0 FontSize neg 0 0]
  makefont setfont} bdef
/ISOLatin1Encoding where {pop /WindowsLatin1Encoding 256 array bdef
ISOLatin1Encoding WindowsLatin1Encoding copy pop
/.notdef/.notdef/quotesinglbase/florin/quotedblbase/ellipsis/dagger
/daggerdbl/circumflex/perthousand/Scaron/guilsinglleft/OE/.notdef/.notdef
/.notdef/.notdef/quoteleft/quoteright/quotedblleft/quotedblright/bullet
/endash/emdash/tilde/trademark/scaron/guilsinglright/oe/.notdef/.notdef
/Ydieresis WindowsLatin1Encoding 128 32 getinterval astore pop}
{/WindowsLatin1Encoding StandardEncoding bdef} ifelse
/reencode {exch dup where {pop load} {pop StandardEncoding} ifelse
  exch dup 3 1 roll findfont dup length dict begin
  { 1 index /FID ne {def}{pop pop} ifelse } forall
  /Encoding exch def currentdict end definefont pop} bdef
/isroman {findfont /CharStrings get /Agrave known} bdef
/FMSR {3 1 roll 1 index dup isroman {reencode} {pop pop} ifelse
  exch FMS} bdef
/csm {1 dpi2point div -1 dpi2point div scale neg translate
 dup landscapeMode eq {pop -90 rotate}
  {rotateMode eq {90 rotate} if} ifelse} bdef
% line types: solid, dotted, dashed, dotdash
/SO { [] 0 setdash } bdef
/DO { [.5 dpi2point mul 4 dpi2point mul] 0 setdash } bdef
/DA { [6 dpi2point mul] 0 setdash } bdef
/DD { [.5 dpi2point mul 4 dpi2point mul 6 dpi2point mul 4
  dpi2point mul] 0 setdash } bdef
% macros for lines and objects
/L {lineto stroke} bdef
/MP {3 1 roll moveto 1 sub {rlineto} repeat} bdef
/AP {{rlineto} repeat} bdef
/PDlw -1 def
/W {/PDlw currentlinewidth def setlinewidth} def
/PP {closepath eofill} bdef
/DP {closepath stroke} bdef
/MR {4 -2 roll moveto dup  0 exch rlineto exch 0 rlineto
  neg 0 exch rlineto closepath} bdef
/FR {MR stroke} bdef
/PR {MR fill} bdef
/L1i {{currentfile picstr readhexstring pop} image} bdef
/tMatrix matrix def
/MakeOval {newpath tMatrix currentmatrix pop translate scale
0 0 1 0 360 arc tMatrix setmatrix} bdef
/FO {MakeOval stroke} bdef
/PO {MakeOval fill} bdef
/PD {currentlinewidth 2 div 0 360 arc fill
   PDlw -1 eq not {PDlw w /PDlw -1 def} if} def
/FA {newpath tMatrix currentmatrix pop translate scale
  0 0 1 5 -2 roll arc tMatrix setmatrix stroke} bdef
/PA {newpath tMatrix currentmatrix pop	translate 0 0 moveto scale
  0 0 1 5 -2 roll arc closepath tMatrix setmatrix fill} bdef
/FAn {newpath tMatrix currentmatrix pop translate scale
  0 0 1 5 -2 roll arcn tMatrix setmatrix stroke} bdef
/PAn {newpath tMatrix currentmatrix pop translate 0 0 moveto scale
  0 0 1 5 -2 roll arcn closepath tMatrix setmatrix fill} bdef
/vradius 0 def /hradius 0 def /lry 0 def
/lrx 0 def /uly 0 def /ulx 0 def /rad 0 def
/MRR {/vradius xdef /hradius xdef /lry xdef /lrx xdef /uly xdef
  /ulx xdef newpath tMatrix currentmatrix pop ulx hradius add uly
  vradius add translate hradius vradius scale 0 0 1 180 270 arc 
  tMatrix setmatrix lrx hradius sub uly vradius add translate
  hradius vradius scale 0 0 1 270 360 arc tMatrix setmatrix
  lrx hradius sub lry vradius sub translate hradius vradius scale
  0 0 1 0 90 arc tMatrix setmatrix ulx hradius add lry vradius sub
  translate hradius vradius scale 0 0 1 90 180 arc tMatrix setmatrix
  closepath} bdef
/FRR {MRR stroke } bdef
/PRR {MRR fill } bdef
/MlrRR {/lry xdef /lrx xdef /uly xdef /ulx xdef /rad lry uly sub 2 div def
  newpath tMatrix currentmatrix pop ulx rad add uly rad add translate
  rad rad scale 0 0 1 90 270 arc tMatrix setmatrix lrx rad sub lry rad
  sub translate rad rad scale 0 0 1 270 90 arc tMatrix setmatrix
  closepath} bdef
/FlrRR {MlrRR stroke } bdef
/PlrRR {MlrRR fill } bdef
/MtbRR {/lry xdef /lrx xdef /uly xdef /ulx xdef /rad lrx ulx sub 2 div def
  newpath tMatrix currentmatrix pop ulx rad add uly rad add translate
  rad rad scale 0 0 1 180 360 arc tMatrix setmatrix lrx rad sub lry rad
  sub translate rad rad scale 0 0 1 0 180 arc tMatrix setmatrix
  closepath} bdef
/FtbRR {MtbRR stroke } bdef
/PtbRR {MtbRR fill } bdef
/stri 6 array def /dtri 6 array def
/smat 6 array def /dmat 6 array def
/tmat1 6 array def /tmat2 6 array def /dif 3 array def
/asub {/ind2 exch def /ind1 exch def dup dup
  ind1 get exch ind2 get sub exch } bdef
/tri_to_matrix {
  2 0 asub 3 1 asub 4 0 asub 5 1 asub
  dup 0 get exch 1 get 7 -1 roll astore } bdef
/compute_transform {
  dmat dtri tri_to_matrix tmat1 invertmatrix 
  smat stri tri_to_matrix tmat2 concatmatrix } bdef
/ds {stri astore pop} bdef
/dt {dtri astore pop} bdef
/db {2 copy /cols xdef /rows xdef mul dup 3 mul string
  currentfile 
  3 index 0 eq {/ASCIIHexDecode filter}
  {/ASCII85Decode filter 3 index 2 eq {/RunLengthDecode filter} if }
  ifelse exch readstring pop
  dup 0 3 index getinterval /rbmap xdef
  dup 2 index dup getinterval /gbmap xdef
  1 index dup 2 mul exch getinterval /bbmap xdef pop pop}bdef
/it {gs np dtri aload pop moveto lineto lineto cp c
  cols rows 8 compute_transform 
  rbmap gbmap bbmap true 3 colorimage gr}bdef
/il {newpath moveto lineto stroke}bdef
currentdict end def
%%EndProlog

%%BeginSetup
MathWorks begin

0 cap

end
%%EndSetup

%%Page: 1 1
%%BeginPageSetup
%%PageBoundingBox:    51    98   542   708
MathWorks begin
bpage
%%EndPageSetup

%%BeginObject: obj1
bplot

/dpi2point 12 def
landscapeMode 0216 0204 csm

  978   403  7314  5895 rc
85 dict begin %Colortable dictionary
/c0 { 0.000000 0.000000 0.000000 sr} bdef
/c1 { 1.000000 1.000000 1.000000 sr} bdef
/c2 { 0.900000 0.000000 0.000000 sr} bdef
/c3 { 0.000000 0.820000 0.000000 sr} bdef
/c4 { 0.000000 0.000000 0.800000 sr} bdef
/c5 { 0.910000 0.820000 0.320000 sr} bdef
/c6 { 1.000000 0.260000 0.820000 sr} bdef
/c7 { 0.000000 0.820000 0.820000 sr} bdef
c0
1 j
1 sg
   0    0 9073 6913 rf
6 w
0 5634 7031 0 0 -5634 1179 6152 4 MP
PP
-7031 0 0 5634 7031 0 0 -5634 1179 6152 5 MP stroke
4 w
DO
SO
6 w
0 sg
1179 6152 mt 8210 6152 L
1179 6152 mt 1179  518 L
1179 6152 mt 1179 6081 L
%%IncludeResource: font Helvetica
/Helvetica /WindowsLatin1Encoding 120 FMSR

1146 6297 mt 
(0) s
1882 6152 mt 1882 6081 L
1799 6297 mt 
(0.1) s
2585 6152 mt 2585 6081 L
2502 6297 mt 
(0.2) s
3288 6152 mt 3288 6081 L
3205 6297 mt 
(0.3) s
3991 6152 mt 3991 6081 L
3908 6297 mt 
(0.4) s
4694 6152 mt 4694 6081 L
4611 6297 mt 
(0.5) s
5397 6152 mt 5397 6081 L
5314 6297 mt 
(0.6) s
6100 6152 mt 6100 6081 L
6017 6297 mt 
(0.7) s
6803 6152 mt 6803 6081 L
6720 6297 mt 
(0.8) s
7506 6152 mt 7506 6081 L
7423 6297 mt 
(0.9) s
8210 6152 mt 8210 6081 L
8177 6297 mt 
(1) s
1179 6152 mt 1249 6152 L
1078 6196 mt 
(0) s
1179 5588 mt 1249 5588 L
 978 5632 mt 
(0.1) s
1179 5025 mt 1249 5025 L
 978 5069 mt 
(0.2) s
1179 4461 mt 1249 4461 L
 978 4505 mt 
(0.3) s
1179 3898 mt 1249 3898 L
 978 3942 mt 
(0.4) s
1179 3335 mt 1249 3335 L
 978 3379 mt 
(0.5) s
1179 2771 mt 1249 2771 L
 978 2815 mt 
(0.6) s
1179 2208 mt 1249 2208 L
 978 2252 mt 
(0.7) s
1179 1644 mt 1249 1644 L
 978 1688 mt 
(0.8) s
1179 1081 mt 1249 1081 L
 978 1125 mt 
(0.9) s
1179  518 mt 1249  518 L
1078  562 mt 
(1) s
%%IncludeResource: font Helvetica
/Helvetica /WindowsLatin1Encoding 72 FMSR

7717 5783 mt 
(\(Subject sfd\)) s

end %%Color Dict

eplot
%%EndObject

epage
end

showpage

%%Page: 2 2
%%BeginPageSetup
%%PageBoundingBox:    51    98   542   708
MathWorks begin
bpage
%%EndPageSetup

%%BeginObject: obj1
bplot

/dpi2point 12 def
landscapeMode 0216 0204 csm

  978   403  7314  5895 rc
85 dict begin %Colortable dictionary
/c0 { 0.000000 0.000000 0.000000 sr} bdef
/c1 { 1.000000 1.000000 1.000000 sr} bdef
/c2 { 0.900000 0.000000 0.000000 sr} bdef
/c3 { 0.000000 0.820000 0.000000 sr} bdef
/c4 { 0.000000 0.000000 0.800000 sr} bdef
/c5 { 0.910000 0.820000 0.320000 sr} bdef
/c6 { 1.000000 0.260000 0.820000 sr} bdef
/c7 { 0.000000 0.820000 0.820000 sr} bdef
c0
1 j
1 sg
   0    0 9073 6913 rf
6 w
0 5634 7031 0 0 -5634 1179 6152 4 MP
PP
-7031 0 0 5634 7031 0 0 -5634 1179 6152 5 MP stroke
4 w
DO
SO
6 w
0 sg
1179 6152 mt 8210 6152 L
1179 6152 mt 1179  518 L
1179 6152 mt 1179 6081 L
%%IncludeResource: font Helvetica
/Helvetica /WindowsLatin1Encoding 120 FMSR

1146 6297 mt 
(0) s
1882 6152 mt 1882 6081 L
1799 6297 mt 
(0.1) s
2585 6152 mt 2585 6081 L
2502 6297 mt 
(0.2) s
3288 6152 mt 3288 6081 L
3205 6297 mt 
(0.3) s
3991 6152 mt 3991 6081 L
3908 6297 mt 
(0.4) s
4694 6152 mt 4694 6081 L
4611 6297 mt 
(0.5) s
5397 6152 mt 5397 6081 L
5314 6297 mt 
(0.6) s
6100 6152 mt 6100 6081 L
6017 6297 mt 
(0.7) s
6803 6152 mt 6803 6081 L
6720 6297 mt 
(0.8) s
7506 6152 mt 7506 6081 L
7423 6297 mt 
(0.9) s
8210 6152 mt 8210 6081 L
8177 6297 mt 
(1) s
1179 6152 mt 1249 6152 L
1078 6196 mt 
(0) s
1179 5588 mt 1249 5588 L
 978 5632 mt 
(0.1) s
1179 5025 mt 1249 5025 L
 978 5069 mt 
(0.2) s
1179 4461 mt 1249 4461 L
 978 4505 mt 
(0.3) s
1179 3898 mt 1249 3898 L
 978 3942 mt 
(0.4) s
1179 3335 mt 1249 3335 L
 978 3379 mt 
(0.5) s
1179 2771 mt 1249 2771 L
 978 2815 mt 
(0.6) s
1179 2208 mt 1249 2208 L
 978 2252 mt 
(0.7) s
1179 1644 mt 1249 1644 L
 978 1688 mt 
(0.8) s
1179 1081 mt 1249 1081 L
 978 1125 mt 
(0.9) s
1179  518 mt 1249  518 L
1078  562 mt 
(1) s
%%IncludeResource: font Helvetica
/Helvetica /WindowsLatin1Encoding 72 FMSR

7717 5783 mt 
(\(Subject sfd\)) s

end %%Color Dict

eplot
%%EndObject

epage
end

showpage

%%Trailer
%%BoundingBox:    51    98   542   708
%%Pages: 002
%%EOF
