%!PS-Adobe-3.0 EPSF-3.0
%%Creator: MATLAB, The MathWorks, Inc. Version 8.2.0.701 (R2013b). Operating System: Microsoft Windows 8.
%%Title: .\frontal_normFS.eps
%%CreationDate: 01/09/2014  16:27:52
%%DocumentNeededFonts: Helvetica
%%DocumentProcessColors: Cyan Magenta Yellow Black
%%LanguageLevel: 2
%%Pages: 1
%%BoundingBox:    57   201   544   597
%%EndComments

%%BeginProlog
% MathWorks dictionary
/MathWorks 160 dict begin
% definition operators
/bdef {bind def} bind def
/ldef {load def} bind def
/xdef {exch def} bdef
/xstore {exch store} bdef
% operator abbreviations
/c  /clip ldef
/cc /concat ldef
/cp /closepath ldef
/gr /grestore ldef
/gs /gsave ldef
/mt /moveto ldef
/np /newpath ldef
/cm /currentmatrix ldef
/sm /setmatrix ldef
/rm /rmoveto ldef
/rl /rlineto ldef
/s {show newpath} bdef
/sc {setcmykcolor} bdef
/sr /setrgbcolor ldef
/sg /setgray ldef
/w /setlinewidth ldef
/j /setlinejoin ldef
/cap /setlinecap ldef
/rc {rectclip} bdef
/rf {rectfill} bdef
% page state control
/pgsv () def
/bpage {/pgsv save def} bdef
/epage {pgsv restore} bdef
/bplot /gsave ldef
/eplot {stroke grestore} bdef
% orientation switch
/portraitMode 0 def /landscapeMode 1 def /rotateMode 2 def
% coordinate system mappings
/dpi2point 0 def
% font control
/FontSize 0 def
/FMS {/FontSize xstore findfont [FontSize 0 0 FontSize neg 0 0]
  makefont setfont} bdef
/ISOLatin1Encoding where {pop /WindowsLatin1Encoding 256 array bdef
ISOLatin1Encoding WindowsLatin1Encoding copy pop
/.notdef/.notdef/quotesinglbase/florin/quotedblbase/ellipsis/dagger
/daggerdbl/circumflex/perthousand/Scaron/guilsinglleft/OE/.notdef/.notdef
/.notdef/.notdef/quoteleft/quoteright/quotedblleft/quotedblright/bullet
/endash/emdash/tilde/trademark/scaron/guilsinglright/oe/.notdef/.notdef
/Ydieresis WindowsLatin1Encoding 128 32 getinterval astore pop}
{/WindowsLatin1Encoding StandardEncoding bdef} ifelse
/reencode {exch dup where {pop load} {pop StandardEncoding} ifelse
  exch dup 3 1 roll findfont dup length dict begin
  { 1 index /FID ne {def}{pop pop} ifelse } forall
  /Encoding exch def currentdict end definefont pop} bdef
/isroman {findfont /CharStrings get /Agrave known} bdef
/FMSR {3 1 roll 1 index dup isroman {reencode} {pop pop} ifelse
  exch FMS} bdef
/csm {1 dpi2point div -1 dpi2point div scale neg translate
 dup landscapeMode eq {pop -90 rotate}
  {rotateMode eq {90 rotate} if} ifelse} bdef
% line types: solid, dotted, dashed, dotdash
/SO { [] 0 setdash } bdef
/DO { [.5 dpi2point mul 4 dpi2point mul] 0 setdash } bdef
/DA { [6 dpi2point mul] 0 setdash } bdef
/DD { [.5 dpi2point mul 4 dpi2point mul 6 dpi2point mul 4
  dpi2point mul] 0 setdash } bdef
% macros for lines and objects
/L {lineto stroke} bdef
/MP {3 1 roll moveto 1 sub {rlineto} repeat} bdef
/AP {{rlineto} repeat} bdef
/PDlw -1 def
/W {/PDlw currentlinewidth def setlinewidth} def
/PP {closepath eofill} bdef
/DP {closepath stroke} bdef
/MR {4 -2 roll moveto dup  0 exch rlineto exch 0 rlineto
  neg 0 exch rlineto closepath} bdef
/FR {MR stroke} bdef
/PR {MR fill} bdef
/L1i {{currentfile picstr readhexstring pop} image} bdef
/tMatrix matrix def
/MakeOval {newpath tMatrix currentmatrix pop translate scale
0 0 1 0 360 arc tMatrix setmatrix} bdef
/FO {MakeOval stroke} bdef
/PO {MakeOval fill} bdef
/PD {currentlinewidth 2 div 0 360 arc fill
   PDlw -1 eq not {PDlw w /PDlw -1 def} if} def
/FA {newpath tMatrix currentmatrix pop translate scale
  0 0 1 5 -2 roll arc tMatrix setmatrix stroke} bdef
/PA {newpath tMatrix currentmatrix pop	translate 0 0 moveto scale
  0 0 1 5 -2 roll arc closepath tMatrix setmatrix fill} bdef
/FAn {newpath tMatrix currentmatrix pop translate scale
  0 0 1 5 -2 roll arcn tMatrix setmatrix stroke} bdef
/PAn {newpath tMatrix currentmatrix pop translate 0 0 moveto scale
  0 0 1 5 -2 roll arcn closepath tMatrix setmatrix fill} bdef
/vradius 0 def /hradius 0 def /lry 0 def
/lrx 0 def /uly 0 def /ulx 0 def /rad 0 def
/MRR {/vradius xdef /hradius xdef /lry xdef /lrx xdef /uly xdef
  /ulx xdef newpath tMatrix currentmatrix pop ulx hradius add uly
  vradius add translate hradius vradius scale 0 0 1 180 270 arc 
  tMatrix setmatrix lrx hradius sub uly vradius add translate
  hradius vradius scale 0 0 1 270 360 arc tMatrix setmatrix
  lrx hradius sub lry vradius sub translate hradius vradius scale
  0 0 1 0 90 arc tMatrix setmatrix ulx hradius add lry vradius sub
  translate hradius vradius scale 0 0 1 90 180 arc tMatrix setmatrix
  closepath} bdef
/FRR {MRR stroke } bdef
/PRR {MRR fill } bdef
/MlrRR {/lry xdef /lrx xdef /uly xdef /ulx xdef /rad lry uly sub 2 div def
  newpath tMatrix currentmatrix pop ulx rad add uly rad add translate
  rad rad scale 0 0 1 90 270 arc tMatrix setmatrix lrx rad sub lry rad
  sub translate rad rad scale 0 0 1 270 90 arc tMatrix setmatrix
  closepath} bdef
/FlrRR {MlrRR stroke } bdef
/PlrRR {MlrRR fill } bdef
/MtbRR {/lry xdef /lrx xdef /uly xdef /ulx xdef /rad lrx ulx sub 2 div def
  newpath tMatrix currentmatrix pop ulx rad add uly rad add translate
  rad rad scale 0 0 1 180 360 arc tMatrix setmatrix lrx rad sub lry rad
  sub translate rad rad scale 0 0 1 0 180 arc tMatrix setmatrix
  closepath} bdef
/FtbRR {MtbRR stroke } bdef
/PtbRR {MtbRR fill } bdef
/stri 6 array def /dtri 6 array def
/smat 6 array def /dmat 6 array def
/tmat1 6 array def /tmat2 6 array def /dif 3 array def
/asub {/ind2 exch def /ind1 exch def dup dup
  ind1 get exch ind2 get sub exch } bdef
/tri_to_matrix {
  2 0 asub 3 1 asub 4 0 asub 5 1 asub
  dup 0 get exch 1 get 7 -1 roll astore } bdef
/compute_transform {
  dmat dtri tri_to_matrix tmat1 invertmatrix 
  smat stri tri_to_matrix tmat2 concatmatrix } bdef
/ds {stri astore pop} bdef
/dt {dtri astore pop} bdef
/db {2 copy /cols xdef /rows xdef mul dup 3 mul string
  currentfile 
  3 index 0 eq {/ASCIIHexDecode filter}
  {/ASCII85Decode filter 3 index 2 eq {/RunLengthDecode filter} if }
  ifelse exch readstring pop
  dup 0 3 index getinterval /rbmap xdef
  dup 2 index dup getinterval /gbmap xdef
  1 index dup 2 mul exch getinterval /bbmap xdef pop pop}bdef
/it {gs np dtri aload pop moveto lineto lineto cp c
  cols rows 8 compute_transform 
  rbmap gbmap bbmap true 3 colorimage gr}bdef
/il {newpath moveto lineto stroke}bdef
currentdict end def
%%EndProlog

%%BeginSetup
MathWorks begin

0 cap

end
%%EndSetup

%%Page: 1 1
%%BeginPageSetup
%%PageBoundingBox:    57   201   544   597
MathWorks begin
bpage
%%EndPageSetup

%%BeginObject: obj1
bplot

/dpi2point 12 def
portraitMode 0204 7344 csm

  481   173  5846  4748 rc
88 dict begin %Colortable dictionary
/c0 { 0.000000 0.000000 0.000000 sr} bdef
/c1 { 1.000000 1.000000 1.000000 sr} bdef
/c2 { 0.900000 0.000000 0.000000 sr} bdef
/c3 { 0.000000 0.820000 0.000000 sr} bdef
/c4 { 0.000000 0.000000 0.800000 sr} bdef
/c5 { 0.910000 0.820000 0.320000 sr} bdef
/c6 { 1.000000 0.260000 0.820000 sr} bdef
/c7 { 0.000000 0.820000 0.820000 sr} bdef
c0
1 j
1 sg
   0    0 6913 5185 rf
6 w
0 4225 5356 0 0 -4225 899 4614 4 MP
PP
-5356 0 0 4225 5356 0 0 -4225 899 4614 5 MP stroke
4 w
DO
SO
6 w
0 sg
 899 4614 mt 6255 4614 L
 899 4614 mt  899  389 L
 899 4614 mt  899 4560 L
%%IncludeResource: font Helvetica
/Helvetica /WindowsLatin1Encoding 84 FMSR

 828 4726 mt 
(-1) s
1434 4614 mt 1434 4560 L
1411 4726 mt 
(0) s
1970 4614 mt 1970 4560 L
1947 4726 mt 
(1) s
2505 4614 mt 2505 4560 L
2482 4726 mt 
(2) s
3041 4614 mt 3041 4560 L
3018 4726 mt 
(3) s
3577 4614 mt 3577 4560 L
3554 4726 mt 
(4) s
4112 4614 mt 4112 4560 L
4089 4726 mt 
(5) s
4648 4614 mt 4648 4560 L
4625 4726 mt 
(6) s
5183 4614 mt 5183 4560 L
5160 4726 mt 
(7) s
5719 4614 mt 5719 4560 L
5696 4726 mt 
(8) s
6255 4614 mt 6255 4560 L
6232 4726 mt 
(9) s
 899 4614 mt  952 4614 L
 699 4645 mt 
(-0.4) s
 899 4085 mt  952 4085 L
 699 4116 mt 
(-0.2) s
 899 3557 mt  952 3557 L
 818 3588 mt 
(0) s
 899 3029 mt  952 3029 L
 748 3060 mt 
(0.2) s
 899 2501 mt  952 2501 L
 748 2532 mt 
(0.4) s
 899 1973 mt  952 1973 L
 748 2004 mt 
(0.6) s
 899 1445 mt  952 1445 L
 748 1476 mt 
(0.8) s
 899  917 mt  952  917 L
 818  948 mt 
(1) s
 899  389 mt  952  389 L
 748  420 mt 
(1.2) s
gs 899 389 5357 4226 rc
0.7 sg
1 0 1 0 1 0 11 -25 536 0 2 -6 0 7 0 18 
-1 18 -2 18 -2 18 -3 18 -4 19 -4 18 -5 19 -6 19 
-7 18 -7 19 -8 19 -8 20 -10 19 -10 20 -10 20 -12 20 
-12 21 -13 20 -14 21 -14 22 -16 21 -16 22 -17 23 -17 23 
-19 23 -20 23 -20 24 -21 25 -22 24 -24 26 -24 26 -25 26 
-26 27 -27 27 -28 28 -29 28 -30 30 -31 29 -32 30 -34 31 
-34 32 -36 32 -37 33 -38 33 -39 34 -41 35 -42 35 -43 37 
-45 37 -46 37 -47 38 -49 39 -50 40 -52 40 -53 41 -55 42 
-57 42 -57 43 -60 44 -61 44 -63 44 -64 45 -66 46 -68 46 
-69 46 -72 47 -72 47 -75 47 -76 47 -78 46 -80 47 -82 47 
-83 46 -85 45 -87 45 -88 44 -90 43 -91 42 -93 40 -94 39 
-96 36 -97 35 -98 32 -100 29 -100 26 -102 23 -102 18 -102 15 
-104 9 -103 5 -68 0 5652 751 100 MP
8 -6 7 -6 8 -6 7 -6 7 -6 7 -5 7 -5 7 -5 
6 -5 6 -5 6 -5 6 -5 5 -4 6 -4 5 -4 5 -5 
5 -3 5 -4 5 -4 4 -4 5 -3 4 -3 4 -4 5 -3 
4 -3 3 -3 4 -3 4 -3 3 -2 4 -3 3 -3 3 -2 
4 -3 3 -2 3 -2 3 -2 2 -3 3 -2 3 -2 2 -2 
3 -1 2 -2 3 -2 2 -2 2 -1 3 -2 2 -2 2 -1 
2 -2 2 -1 2 -1 2 -2 2 -1 1 -1 2 -1 2 -2 
1 -1 2 -1 2 -1 1 -1 2 -1 1 -1 2 0 1 -1 
1 -1 2 -1 1 -1 1 0 2 -1 1 -1 1 0 1 -1 
2 -1 1 0 1 -1 1 0 1 -1 1 0 1 -1 1 0 
1 0 1 -1 1 0 1 0 1 -1 1 0 1 0 1 0 
1 0 1 -1 1 0 1 0 1 0 1 0 1 0 1 0 
1 0 1 0 1 0 0 0 100 AP
-65 -75 -63 -75 -62 -76 23 29 52 0 87 -4 88 -9 87 -13 
86 -17 86 -21 84 -24 84 -27 83 -29 82 -31 81 -33 79 -35 
78 -36 77 -37 75 -38 74 -39 73 -39 71 -39 69 -40 68 -40 
67 -40 65 -40 64 -40 62 -40 60 -39 60 -39 58 -38 56 -38 
55 -38 54 -36 52 -37 51 -36 50 -35 48 -34 48 -34 46 -33 
44 -33 44 -32 42 -31 41 -30 41 -30 39 -29 38 -29 36 -27 
36 -27 35 -27 34 -26 33 -25 32 -25 32 -23 30 -24 30 -23 
28 -22 28 -21 27 -21 27 -21 25 -20 25 -19 24 -19 24 -18 
22 -18 23 -17 21 -17 21 -17 20 -16 20 -15 19 -15 19 -15 
18 -14 17 -14 17 -13 17 -13 16 -13 16 -13 15 -12 15 -11 
14 -12 14 -11 13 -10 14 -11 12 -10 13 -10 12 -9 11 -9 
12 -9 11 -9 10 -9 11 -8 10 -8 10 -8 9 -7 9 -7 
9 -8 9 -6 9 -7 8 -7 100 AP
-69 -74 -67 -74 -66 -75 3 AP
PP
0 sg
-9 -9 -69 -74 -67 -74 -66 -75 -65 -75 -63 -75 -62 -76 23 29 
52 0 87 -4 88 -9 87 -13 86 -17 86 -21 84 -24 84 -27 
83 -29 82 -31 81 -33 79 -35 78 -36 77 -37 75 -38 74 -39 
73 -39 71 -39 69 -40 68 -40 67 -40 65 -40 64 -40 62 -40 
60 -39 60 -39 58 -38 56 -38 55 -38 54 -36 52 -37 51 -36 
50 -35 48 -34 48 -34 46 -33 44 -33 44 -32 42 -31 41 -30 
41 -30 39 -29 38 -29 36 -27 36 -27 35 -27 34 -26 33 -25 
32 -25 32 -23 30 -24 30 -23 28 -22 28 -21 27 -21 27 -21 
25 -20 25 -19 24 -19 24 -18 22 -18 23 -17 21 -17 21 -17 
20 -16 20 -15 19 -15 19 -15 18 -14 17 -14 17 -13 17 -13 
16 -13 16 -13 15 -12 15 -11 14 -12 14 -11 13 -10 14 -11 
12 -10 13 -10 12 -9 11 -9 12 -9 11 -9 10 -9 11 -8 
10 -8 10 -8 9 -7 9 -7 9 -8 9 -6 9 -7 8 -7 
8 -6 7 -6 8 -6 7 -6 7 -6 7 -5 7 -5 7 -5 
6 -5 6 -5 6 -5 6 -5 5 -4 6 -4 5 -4 5 -5 
5 -3 5 -4 5 -4 4 -4 5 -3 4 -3 4 -4 5 -3 
4 -3 3 -3 4 -3 4 -3 3 -2 4 -3 3 -3 3 -2 
4 -3 3 -2 3 -2 3 -2 2 -3 3 -2 3 -2 2 -2 
3 -1 2 -2 3 -2 2 -2 2 -1 3 -2 2 -2 2 -1 
2 -2 2 -1 2 -1 2 -2 2 -1 1 -1 2 -1 2 -2 
1 -1 2 -1 2 -1 1 -1 2 -1 1 -1 2 0 1 -1 
1 -1 2 -1 1 -1 1 0 2 -1 1 -1 1 0 1 -1 
2 -1 1 0 1 -1 1 0 1 -1 1 0 1 -1 1 0 
1 0 1 -1 1 0 1 0 1 -1 1 0 1 0 1 0 
1 0 1 -1 1 0 1 0 1 0 1 0 1 0 1 0 
1 0 1 0 1 0 0 0 1 0 1 0 1 0 11 -25 
536 0 2 -6 0 7 0 18 -1 18 -2 18 -2 18 -3 18 
-4 19 -4 18 -5 19 -6 19 -7 18 -7 19 -8 19 -8 20 
-10 19 -10 20 -10 20 -12 20 -12 21 -13 20 -14 21 -14 22 
-16 21 -16 22 -17 23 -17 23 -19 23 -20 23 -20 24 -21 25 
-22 24 -24 26 -24 26 -25 26 -26 27 -27 27 -28 28 -29 28 
-30 30 -31 29 -32 30 -34 31 -34 32 -36 32 -37 33 -38 33 
-39 34 -41 35 -42 35 -43 37 -45 37 -46 37 -47 38 -49 39 
-50 40 -52 40 -53 41 -55 42 -57 42 -57 43 -60 44 -61 44 
-63 44 -64 45 -66 46 -68 46 -69 46 -72 47 -72 47 -75 47 
-76 47 -78 46 -80 47 -82 47 -83 46 -85 45 -87 45 -88 44 
-90 43 -91 42 -93 40 -94 39 -96 36 -97 35 -98 32 -100 29 
-100 26 -102 23 -102 18 5275 780 300 MP stroke
-102 15 -104 9 -103 5 -68 0 5652 751 5 MP stroke
0.3 sg
13 77 26 51 26 13 39 13 78 13 65 12 65 26 32 8 
33 -8 52 -26 39 -25 26 -26 13 -25 13 -26 13 -26 3 -76 
-3 -52 -26 -51 -26 -25 -39 -18 -39 -8 -39 0 -46 26 -19 25 
-26 26 -26 6 -26 -6 -52 -26 -39 -25 -52 -13 -39 18 -26 46 
-13 51 1970 4111 34 MP
PP
0 sg
0 51 13 77 26 51 26 13 39 13 78 13 65 12 65 26 
32 8 33 -8 52 -26 39 -25 26 -26 13 -25 13 -26 13 -26 
3 -76 -3 -52 -26 -51 -26 -25 -39 -18 -39 -8 -39 0 -46 26 
-19 25 -26 26 -26 6 -26 -6 -52 -26 -39 -25 -52 -13 -39 18 
-26 46 -13 51 1970 4111 35 MP stroke
gr

%%IncludeResource: font Helvetica
/Helvetica /WindowsLatin1Encoding 120 FMSR

2693 4869 mt 
(Position normalized to foot length) s
 617 3788 mt  -90 rotate
(Anterior velocity normalized to body height \(s-1\)) s
90 rotate
gs 899 389 5357 4226 rc
0 -4225 1434 4614 2 MP stroke
0 -4225 1970 4614 2 MP stroke
gs 1629 3484 147 147 rc
/c8 { 1.000000 0.000000 1.000000 sr} bdef
c8
  36   36 1702 3557 FO
gr

c8
0 sg
5089 0 1166 3557 2 MP stroke
gr

%%IncludeResource: font Helvetica
/Helvetica /WindowsLatin1Encoding 84 FMSR

2006  324 mt 
(frontal boundaries \(C:\\Users\\James\\Desktop\\stabilityBoundar\
ies\\stabilityBoundaries\)) s

end %%Color Dict

eplot
%%EndObject

epage
end

showpage

%%Trailer
%%EOF
