0	-0.0242424
0.0242424	-0.0727273
0.0727273	-0.1163636
0.1454545	-0.1333333
0.2424242	-0.1212121
0.3151515	-0.0969697
0.4121212	-0.0727273
0.4606061	-0.0666667
0.5090909	-0.0727273
0.5575758	-0.0969697
0.5939394	-0.1212121
0.6787879	-0.1454545
0.7515152	-0.1454545
0.8242424	-0.1381818
0.8969697	-0.1212121
0.9454545	-0.0969697
0.9939394	-0.0484848
1	0
0.9939394	0.0727273
0.969697	0.0969697
0.9454545	0.1212121
0.9212121	0.1454545
0.8727273	0.169697
0.8	0.1939394
0.7030303	0.2181818
0.6424242	0.2254545
0.5818182	0.2181818
0.4606061	0.1939394
0.3393939	0.1818182
0.1939394	0.169697
0.1212121	0.1575758
0.0727273	0.1454545
0.0242424	0.0969697
0	0.0242424

