%!PS-Adobe-3.0 EPSF-3.0
%%Creator: MATLAB, The MathWorks, Inc. Version 8.2.0.701 (R2013b). Operating System: Microsoft Windows 8.
%%Title: .\sagittal_normFS.eps
%%CreationDate: 01/09/2014  16:27:44
%%DocumentNeededFonts: Helvetica
%%DocumentProcessColors: Cyan Magenta Yellow Black
%%LanguageLevel: 2
%%Pages: 1
%%BoundingBox:    57   201   544   597
%%EndComments

%%BeginProlog
% MathWorks dictionary
/MathWorks 160 dict begin
% definition operators
/bdef {bind def} bind def
/ldef {load def} bind def
/xdef {exch def} bdef
/xstore {exch store} bdef
% operator abbreviations
/c  /clip ldef
/cc /concat ldef
/cp /closepath ldef
/gr /grestore ldef
/gs /gsave ldef
/mt /moveto ldef
/np /newpath ldef
/cm /currentmatrix ldef
/sm /setmatrix ldef
/rm /rmoveto ldef
/rl /rlineto ldef
/s {show newpath} bdef
/sc {setcmykcolor} bdef
/sr /setrgbcolor ldef
/sg /setgray ldef
/w /setlinewidth ldef
/j /setlinejoin ldef
/cap /setlinecap ldef
/rc {rectclip} bdef
/rf {rectfill} bdef
% page state control
/pgsv () def
/bpage {/pgsv save def} bdef
/epage {pgsv restore} bdef
/bplot /gsave ldef
/eplot {stroke grestore} bdef
% orientation switch
/portraitMode 0 def /landscapeMode 1 def /rotateMode 2 def
% coordinate system mappings
/dpi2point 0 def
% font control
/FontSize 0 def
/FMS {/FontSize xstore findfont [FontSize 0 0 FontSize neg 0 0]
  makefont setfont} bdef
/ISOLatin1Encoding where {pop /WindowsLatin1Encoding 256 array bdef
ISOLatin1Encoding WindowsLatin1Encoding copy pop
/.notdef/.notdef/quotesinglbase/florin/quotedblbase/ellipsis/dagger
/daggerdbl/circumflex/perthousand/Scaron/guilsinglleft/OE/.notdef/.notdef
/.notdef/.notdef/quoteleft/quoteright/quotedblleft/quotedblright/bullet
/endash/emdash/tilde/trademark/scaron/guilsinglright/oe/.notdef/.notdef
/Ydieresis WindowsLatin1Encoding 128 32 getinterval astore pop}
{/WindowsLatin1Encoding StandardEncoding bdef} ifelse
/reencode {exch dup where {pop load} {pop StandardEncoding} ifelse
  exch dup 3 1 roll findfont dup length dict begin
  { 1 index /FID ne {def}{pop pop} ifelse } forall
  /Encoding exch def currentdict end definefont pop} bdef
/isroman {findfont /CharStrings get /Agrave known} bdef
/FMSR {3 1 roll 1 index dup isroman {reencode} {pop pop} ifelse
  exch FMS} bdef
/csm {1 dpi2point div -1 dpi2point div scale neg translate
 dup landscapeMode eq {pop -90 rotate}
  {rotateMode eq {90 rotate} if} ifelse} bdef
% line types: solid, dotted, dashed, dotdash
/SO { [] 0 setdash } bdef
/DO { [.5 dpi2point mul 4 dpi2point mul] 0 setdash } bdef
/DA { [6 dpi2point mul] 0 setdash } bdef
/DD { [.5 dpi2point mul 4 dpi2point mul 6 dpi2point mul 4
  dpi2point mul] 0 setdash } bdef
% macros for lines and objects
/L {lineto stroke} bdef
/MP {3 1 roll moveto 1 sub {rlineto} repeat} bdef
/AP {{rlineto} repeat} bdef
/PDlw -1 def
/W {/PDlw currentlinewidth def setlinewidth} def
/PP {closepath eofill} bdef
/DP {closepath stroke} bdef
/MR {4 -2 roll moveto dup  0 exch rlineto exch 0 rlineto
  neg 0 exch rlineto closepath} bdef
/FR {MR stroke} bdef
/PR {MR fill} bdef
/L1i {{currentfile picstr readhexstring pop} image} bdef
/tMatrix matrix def
/MakeOval {newpath tMatrix currentmatrix pop translate scale
0 0 1 0 360 arc tMatrix setmatrix} bdef
/FO {MakeOval stroke} bdef
/PO {MakeOval fill} bdef
/PD {currentlinewidth 2 div 0 360 arc fill
   PDlw -1 eq not {PDlw w /PDlw -1 def} if} def
/FA {newpath tMatrix currentmatrix pop translate scale
  0 0 1 5 -2 roll arc tMatrix setmatrix stroke} bdef
/PA {newpath tMatrix currentmatrix pop	translate 0 0 moveto scale
  0 0 1 5 -2 roll arc closepath tMatrix setmatrix fill} bdef
/FAn {newpath tMatrix currentmatrix pop translate scale
  0 0 1 5 -2 roll arcn tMatrix setmatrix stroke} bdef
/PAn {newpath tMatrix currentmatrix pop translate 0 0 moveto scale
  0 0 1 5 -2 roll arcn closepath tMatrix setmatrix fill} bdef
/vradius 0 def /hradius 0 def /lry 0 def
/lrx 0 def /uly 0 def /ulx 0 def /rad 0 def
/MRR {/vradius xdef /hradius xdef /lry xdef /lrx xdef /uly xdef
  /ulx xdef newpath tMatrix currentmatrix pop ulx hradius add uly
  vradius add translate hradius vradius scale 0 0 1 180 270 arc 
  tMatrix setmatrix lrx hradius sub uly vradius add translate
  hradius vradius scale 0 0 1 270 360 arc tMatrix setmatrix
  lrx hradius sub lry vradius sub translate hradius vradius scale
  0 0 1 0 90 arc tMatrix setmatrix ulx hradius add lry vradius sub
  translate hradius vradius scale 0 0 1 90 180 arc tMatrix setmatrix
  closepath} bdef
/FRR {MRR stroke } bdef
/PRR {MRR fill } bdef
/MlrRR {/lry xdef /lrx xdef /uly xdef /ulx xdef /rad lry uly sub 2 div def
  newpath tMatrix currentmatrix pop ulx rad add uly rad add translate
  rad rad scale 0 0 1 90 270 arc tMatrix setmatrix lrx rad sub lry rad
  sub translate rad rad scale 0 0 1 270 90 arc tMatrix setmatrix
  closepath} bdef
/FlrRR {MlrRR stroke } bdef
/PlrRR {MlrRR fill } bdef
/MtbRR {/lry xdef /lrx xdef /uly xdef /ulx xdef /rad lrx ulx sub 2 div def
  newpath tMatrix currentmatrix pop ulx rad add uly rad add translate
  rad rad scale 0 0 1 180 360 arc tMatrix setmatrix lrx rad sub lry rad
  sub translate rad rad scale 0 0 1 0 180 arc tMatrix setmatrix
  closepath} bdef
/FtbRR {MtbRR stroke } bdef
/PtbRR {MtbRR fill } bdef
/stri 6 array def /dtri 6 array def
/smat 6 array def /dmat 6 array def
/tmat1 6 array def /tmat2 6 array def /dif 3 array def
/asub {/ind2 exch def /ind1 exch def dup dup
  ind1 get exch ind2 get sub exch } bdef
/tri_to_matrix {
  2 0 asub 3 1 asub 4 0 asub 5 1 asub
  dup 0 get exch 1 get 7 -1 roll astore } bdef
/compute_transform {
  dmat dtri tri_to_matrix tmat1 invertmatrix 
  smat stri tri_to_matrix tmat2 concatmatrix } bdef
/ds {stri astore pop} bdef
/dt {dtri astore pop} bdef
/db {2 copy /cols xdef /rows xdef mul dup 3 mul string
  currentfile 
  3 index 0 eq {/ASCIIHexDecode filter}
  {/ASCII85Decode filter 3 index 2 eq {/RunLengthDecode filter} if }
  ifelse exch readstring pop
  dup 0 3 index getinterval /rbmap xdef
  dup 2 index dup getinterval /gbmap xdef
  1 index dup 2 mul exch getinterval /bbmap xdef pop pop}bdef
/it {gs np dtri aload pop moveto lineto lineto cp c
  cols rows 8 compute_transform 
  rbmap gbmap bbmap true 3 colorimage gr}bdef
/il {newpath moveto lineto stroke}bdef
currentdict end def
%%EndProlog

%%BeginSetup
MathWorks begin

0 cap

end
%%EndSetup

%%Page: 1 1
%%BeginPageSetup
%%PageBoundingBox:    57   201   544   597
MathWorks begin
bpage
%%EndPageSetup

%%BeginObject: obj1
bplot

/dpi2point 12 def
portraitMode 0204 7344 csm

  481   173  5846  4748 rc
88 dict begin %Colortable dictionary
/c0 { 0.000000 0.000000 0.000000 sr} bdef
/c1 { 1.000000 1.000000 1.000000 sr} bdef
/c2 { 0.900000 0.000000 0.000000 sr} bdef
/c3 { 0.000000 0.820000 0.000000 sr} bdef
/c4 { 0.000000 0.000000 0.800000 sr} bdef
/c5 { 0.910000 0.820000 0.320000 sr} bdef
/c6 { 1.000000 0.260000 0.820000 sr} bdef
/c7 { 0.000000 0.820000 0.820000 sr} bdef
c0
1 j
1 sg
   0    0 6913 5185 rf
6 w
0 4225 5356 0 0 -4225 899 4614 4 MP
PP
-5356 0 0 4225 5356 0 0 -4225 899 4614 5 MP stroke
4 w
DO
SO
6 w
0 sg
 899 4614 mt 6255 4614 L
 899 4614 mt  899  389 L
 899 4614 mt  899 4560 L
%%IncludeResource: font Helvetica
/Helvetica /WindowsLatin1Encoding 84 FMSR

 793 4726 mt 
(-0.5) s
1494 4614 mt 1494 4560 L
1471 4726 mt 
(0) s
2089 4614 mt 2089 4560 L
2031 4726 mt 
(0.5) s
2684 4614 mt 2684 4560 L
2661 4726 mt 
(1) s
3279 4614 mt 3279 4560 L
3221 4726 mt 
(1.5) s
3874 4614 mt 3874 4560 L
3851 4726 mt 
(2) s
4469 4614 mt 4469 4560 L
4411 4726 mt 
(2.5) s
5064 4614 mt 5064 4560 L
5041 4726 mt 
(3) s
5659 4614 mt 5659 4560 L
5601 4726 mt 
(3.5) s
6255 4614 mt 6255 4560 L
6232 4726 mt 
(4) s
 899 4614 mt  952 4614 L
 699 4645 mt 
(-0.4) s
 899 4085 mt  952 4085 L
 699 4116 mt 
(-0.2) s
 899 3557 mt  952 3557 L
 818 3588 mt 
(0) s
 899 3029 mt  952 3029 L
 748 3060 mt 
(0.2) s
 899 2501 mt  952 2501 L
 748 2532 mt 
(0.4) s
 899 1973 mt  952 1973 L
 748 2004 mt 
(0.6) s
 899 1445 mt  952 1445 L
 748 1476 mt 
(0.8) s
 899  917 mt  952  917 L
 818  948 mt 
(1) s
 899  389 mt  952  389 L
 748  420 mt 
(1.2) s
gs 899 389 5357 4226 rc
0.7 sg
-8 8 -8 7 -8 8 -9 8 -8 9 -9 9 -9 9 -10 9 
-10 9 -10 10 -10 10 -11 10 -11 11 -11 11 -12 11 -12 12 
-12 12 -13 12 -13 13 -13 13 -14 13 -15 14 -15 14 -15 15 
-15 15 -16 16 -17 16 -17 16 -18 17 -18 17 -19 18 -19 18 
-20 19 -20 20 -21 19 -21 21 -23 21 -23 22 -23 22 -24 23 
-25 23 -26 24 -26 25 -27 25 -28 26 -29 27 -30 28 -30 28 
-32 29 -32 29 -33 30 -34 31 -35 32 -36 33 -37 33 -38 34 
-39 35 -40 35 -41 37 -43 37 -43 38 -45 38 -46 39 -47 40 
-48 41 -50 41 -50 42 -53 43 -53 43 -55 44 -56 44 -57 45 
-59 45 -60 46 -62 45 -63 46 -64 46 -66 46 -67 46 -69 46 
-70 45 -71 45 -73 44 -74 43 -75 43 -77 41 -78 39 -79 38 
-80 37 -82 34 -82 31 -83 29 -84 26 -85 22 -85 18 -86 15 
-86 9 -87 5 -57 0 5580 723 100 MP
0 -1 0 0 0 -1 1 0 0 -1 0 0 0 0 0 -1 
0 0 0 -1 1 0 0 -1 0 0 0 0 0 -1 0 0 
0 -1 32 0 1190 0 -13 16 0 1 -1 1 0 1 -1 1 
-1 1 0 1 -1 1 -1 1 0 1 -1 1 -1 1 -1 1 
-1 1 -1 1 -1 1 -1 2 -1 1 -1 1 -1 1 -1 2 
-1 1 -1 2 -2 1 -1 2 -1 1 -2 2 -1 1 -2 2 
-1 2 -2 1 -1 2 -2 2 -2 2 -2 2 -2 2 -2 2 
-2 2 -2 2 -2 2 -2 3 -2 2 -3 2 -2 3 -3 2 
-2 3 -3 3 -3 2 -2 3 -3 3 -3 3 -4 3 -3 4 
-3 3 -4 3 -3 4 -4 4 -3 3 -4 4 -4 4 -4 4 
-5 4 -4 5 -4 4 -5 5 -5 4 -5 5 -5 5 -5 5 
-5 6 -6 5 -6 6 -6 5 -6 6 -6 6 -6 7 -7 6 
-7 7 -7 7 -7 7 -7 7 100 AP
7 -7 7 -6 6 -7 6 -6 7 -6 6 -6 5 -5 6 -6 
6 -5 5 -5 5 -5 5 -5 5 -5 5 -4 4 -5 5 -4 
4 -4 4 -5 4 -4 4 -3 4 -4 4 -4 4 -3 3 -4 
4 -3 3 -3 3 -3 3 -3 3 -3 3 -3 3 -3 3 -3 
2 -2 3 -3 3 -2 2 -3 2 -2 3 -3 2 -2 2 -2 
2 -2 2 -2 2 -2 2 -2 2 -2 2 -2 2 -1 1 -2 
2 -2 2 -1 1 -2 2 -1 1 -2 2 -1 1 -2 1 -1 
2 -1 1 -2 1 -1 1 -1 2 -1 1 -1 1 -2 1 -1 
1 -1 1 -1 1 -1 1 -1 1 -1 0 -1 1 -1 1 0 
1 -1 1 -1 0 -1 1 -1 1 0 0 -1 1 -1 1 -1 
0 0 1 -1 0 -1 1 0 0 -1 1 -1 0 0 1 -1 
0 0 0 -1 1 -1 0 0 1 -1 0 0 0 -1 1 0 
0 -1 0 0 0 -1 1 0 100 AP
-57 -74 -55 -74 -55 -75 -54 -75 -52 -75 -52 -76 -19 -30 41 1 
70 -4 71 -9 70 -13 70 -17 69 -20 69 -24 67 -27 67 -28 
66 -31 65 -33 64 -34 63 -35 62 -37 61 -37 59 -38 59 -39 
57 -39 56 -39 55 -39 53 -39 53 -39 51 -39 50 -39 49 -39 
48 -38 46 -37 46 -37 44 -37 43 -36 42 -35 41 -35 40 -35 
39 -33 38 -33 37 -33 36 -31 35 -31 34 -31 33 -29 32 -29 
32 -29 30 -27 30 -27 29 -27 28 -26 27 -25 26 -24 26 -24 
25 -23 25 -23 23 -22 23 -22 23 -21 21 -20 21 -20 21 -19 
20 -19 19 -18 19 -18 18 -17 18 -17 17 -17 17 -15 16 -16 
16 -15 15 -15 15 -14 15 -14 14 -13 14 -13 13 -13 13 -12 
12 -12 12 -12 12 -11 12 -11 11 -11 11 -10 10 -10 10 -10 
10 -10 10 -9 9 -9 9 -9 9 -8 9 -8 8 -8 8 -8 
8 -8 7 -7 8 -7 7 -7 100 AP
-58 -73 1 AP
PP
0 sg
29 36 -58 -73 -57 -74 -55 -74 -55 -75 -54 -75 -52 -75 -52 -76 
-19 -30 41 1 70 -4 71 -9 70 -13 70 -17 69 -20 69 -24 
67 -27 67 -28 66 -31 65 -33 64 -34 63 -35 62 -37 61 -37 
59 -38 59 -39 57 -39 56 -39 55 -39 53 -39 53 -39 51 -39 
50 -39 49 -39 48 -38 46 -37 46 -37 44 -37 43 -36 42 -35 
41 -35 40 -35 39 -33 38 -33 37 -33 36 -31 35 -31 34 -31 
33 -29 32 -29 32 -29 30 -27 30 -27 29 -27 28 -26 27 -25 
26 -24 26 -24 25 -23 25 -23 23 -22 23 -22 23 -21 21 -20 
21 -20 21 -19 20 -19 19 -18 19 -18 18 -17 18 -17 17 -17 
17 -15 16 -16 16 -15 15 -15 15 -14 15 -14 14 -13 14 -13 
13 -13 13 -12 12 -12 12 -12 12 -11 12 -11 11 -11 11 -10 
10 -10 10 -10 10 -10 10 -9 9 -9 9 -9 9 -8 9 -8 
8 -8 8 -8 8 -8 7 -7 8 -7 7 -7 7 -7 7 -6 
6 -7 6 -6 7 -6 6 -6 5 -5 6 -6 6 -5 5 -5 
5 -5 5 -5 5 -5 5 -4 4 -5 5 -4 4 -4 4 -5 
4 -4 4 -3 4 -4 4 -4 4 -3 3 -4 4 -3 3 -3 
3 -3 3 -3 3 -3 3 -3 3 -3 3 -3 2 -2 3 -3 
3 -2 2 -3 2 -2 3 -3 2 -2 2 -2 2 -2 2 -2 
2 -2 2 -2 2 -2 2 -2 2 -1 1 -2 2 -2 2 -1 
1 -2 2 -1 1 -2 2 -1 1 -2 1 -1 2 -1 1 -2 
1 -1 1 -1 2 -1 1 -1 1 -2 1 -1 1 -1 1 -1 
1 -1 1 -1 1 -1 0 -1 1 -1 1 0 1 -1 1 -1 
0 -1 1 -1 1 0 0 -1 1 -1 1 -1 0 0 1 -1 
0 -1 1 0 0 -1 1 -1 0 0 1 -1 0 0 0 -1 
1 -1 0 0 1 -1 0 0 0 -1 1 0 0 -1 0 0 
0 -1 1 0 0 -1 0 0 0 -1 1 0 0 -1 0 0 
0 0 0 -1 0 0 0 -1 1 0 0 -1 0 0 0 0 
0 -1 0 0 0 -1 32 0 1190 0 -13 16 0 1 -1 1 
0 1 -1 1 -1 1 0 1 -1 1 -1 1 0 1 -1 1 
-1 1 -1 1 -1 1 -1 1 -1 1 -1 2 -1 1 -1 1 
-1 1 -1 2 -1 1 -1 2 -2 1 -1 2 -1 1 -2 2 
-1 1 -2 2 -1 2 -2 1 -1 2 -2 2 -2 2 -2 2 
-2 2 -2 2 -2 2 -2 2 -2 2 -2 3 -2 2 -3 2 
-2 3 -3 2 -2 3 -3 3 -3 2 -2 3 -3 3 -3 3 
-4 3 -3 4 -3 3 -4 3 -3 4 -4 4 -3 3 -4 4 
-4 4 -4 4 -5 4 -4 5 -4 4 -5 5 -5 4 -5 5 
-5 5 -5 5 -5 6 -6 5 -6 6 -6 5 -6 6 -6 6 
-6 7 -7 6 -7 7 1711 3330 300 MP stroke
-7 7 -7 7 -7 7 -8 8 -8 7 -8 8 -9 8 -8 9 
-9 9 -9 9 -10 9 -10 9 -10 10 -10 10 -11 10 -11 11 
-11 11 -12 11 -12 12 -12 12 -13 12 -13 13 -13 13 -14 13 
-15 14 -15 14 -15 15 -15 15 -16 16 -17 16 -17 16 -18 17 
-18 17 -19 18 -19 18 -20 19 -20 20 -21 19 -21 21 -23 21 
-23 22 -23 22 -24 23 -25 23 -26 24 -26 25 -27 25 -28 26 
-29 27 -30 28 -30 28 -32 29 -32 29 -33 30 -34 31 -35 32 
-36 33 -37 33 -38 34 -39 35 -40 35 -41 37 -43 37 -43 38 
-45 38 -46 39 -47 40 -48 41 -50 41 -50 42 -53 43 -53 43 
-55 44 -56 44 -57 45 -59 45 -60 46 -62 45 -63 46 -64 46 
-66 46 -67 46 -69 46 -70 45 -71 45 -73 44 -74 43 -75 43 
-77 41 -78 39 -79 38 -80 37 -82 34 -82 31 -83 29 -84 26 
-85 22 -85 18 -86 15 -86 9 -87 5 -57 0 5580 723 103 MP stroke
0.3 sg
29 77 58 51 57 13 87 13 173 13 144 12 145 26 72 8 
72 -8 115 -26 87 -25 58 -26 28 -25 29 -26 29 -26 7 -76 
-7 -52 -58 -51 -57 -25 -87 -18 -86 -8 -87 0 -101 26 -43 25 
-58 26 -58 6 -57 -6 -116 -26 -86 -25 -116 -13 -86 18 -58 46 
-29 51 2684 4111 34 MP
PP
0 sg
0 51 29 77 58 51 57 13 87 13 173 13 144 12 145 26 
72 8 72 -8 115 -26 87 -25 58 -26 28 -25 29 -26 29 -26 
7 -76 -7 -52 -58 -51 -57 -25 -87 -18 -86 -8 -87 0 -101 26 
-43 25 -58 26 -58 6 -57 -6 -116 -26 -86 -25 -116 -13 -86 18 
-58 46 -29 51 2684 4111 35 MP stroke
gr

%%IncludeResource: font Helvetica
/Helvetica /WindowsLatin1Encoding 120 FMSR

2693 4869 mt 
(Position normalized to foot length) s
 617 3788 mt  -90 rotate
(Anterior velocity normalized to body height \(s-1\)) s
90 rotate
gs 899 389 5357 4226 rc
0 -4225 1494 4614 2 MP stroke
0 -4225 2684 4614 2 MP stroke
gr

/c8 { 1.000000 0.000000 1.000000 sr} bdef
c8
  36   36 2331 3557 FO
gs 899 389 5357 4226 rc
0 sg
5356 0 899 3557 2 MP stroke
gr

0 sg
%%IncludeResource: font Helvetica
/Helvetica /WindowsLatin1Encoding 84 FMSR

1990  324 mt 
(sagittal boundaries \(C:\\Users\\James\\Desktop\\stabilityBounda\
ries\\stabilityBoundaries\)) s

end %%Color Dict

eplot
%%EndObject

epage
end

showpage

%%Trailer
%%EOF
